{
    "urls": [
        {
            "url": "https://gitlab.com/wanin/mile/-/raw/main/w.json",
            "name": "🔔选择下方线路"
        },
        {
            "url": "https://gitlab.com/wanin/mile/-/raw/main/w.json",
            "name": "🏡道长JS线路"
        },
        {
            "url": "clan://localhost/tvbox/JS/js.json",
            "name": "🏡本地线路12.20"
        },

        {
            "url": "https://yydsys.top/duo/v.json",
            "name": "🏡应用多多"
        },
        {
            "url": "https://yydsys.top/duo/txt/live.txt",
            "name": "🏡电视合集"
        },
        {
            "url": "http://我不是.肥猫.love:63",
            "name": "🚀肥猫线路"
        },
        {
            "url": "http://pandown.pro/tvbox/tvbox.json",
            "name": "🚀巧记线路"
        },
        {
            "url": "http://catvod.fun:8001/tv/m.json",
            "name": "🚀馒头线路"
        },
        {
            "url": "http://52bsj.vip:81/api/v3/file/get/29899/box2.json?sign=3cVyKZQr3lFAwdB3HK-A7h33e0MnmG6lLB9oWlvSNnM%3D%3A0",
            "name": "🚀月光宝盒"
        },
        {
            "url": "http://shagua888168.3vdo.club",
            "name": "🚀蓝魔线路"
        },
              {
            "url": "http://52bsj.vip:98/wuai",
            "name": "🚀吾爱线路"
        },
        {
            "url": "http://8.210.220.114:8888/down/c9s9YQVDdqYw.json",
            "name": "🚀星辰线路"
        },
        {
            "url": "https://cnvip.x10.mx/wp/xsvip/wp-content/uploads/sites/2/2022/10/01.txt",
            "name": "🚀潇洒线路"
        },
        {
            "url": "https://agit.ai/Yoursmile7/TVBox/raw/branch/master/XC.json",
            "name": "🚀南风线路"
        },
        {
            "url": "http://www.dmtv.ml/mao/single.json",
            "name": "🚀乱世线路"
        },
        {
            "url": "https://agit.ai/nbwzlyd/xiaopingguo/raw/branch/master/xiaopingguo/xiaopingguo.json",
            "name": "🚀小苹果线路"
        },
        {
            "url": "https://raw.liucn.cc/box/m.json",
            "name": "🚀老刘备线路"
        },
        {
            "url": "https://app.easybox.vip/dy",
            "name": "🚀EasyBox线路"
        },
        {
            "url": "http://home.jundie.top:81/top98.json",
            "name": "💎俊佬线路"
        }, 
        {
            "url": "https://hutool.ml/tang",
            "name": "💎唐三线路"
        },
               {
            "url": "http://刚刚.live/猫",
            "name": "💎刚刚线路"
        },
        {
            "url": "http://101.34.67.237/config/3",
            "name": "💎小雅JS线路"
        },
        {
            "url": "https://ghproxy.com/raw.githubusercontent.com/lm317379829/PyramidStore/pyramid/py.json",
            "name": "💎霜辉月明py"
        },
        {
            "url": "https://tvbox.cainisi.cf",
            "name": "💎菜妮丝xBPQ"
        },
        {
            "url": "http://dxawi.github.io/0/0.json",
            "name": "💎dxawi0线路"
        },
        {
            "url": "http://miaotvs.cn/meow",
            "name": "💎喵影视线路"
        },
        {
            "url": "https://raw.fastgit.org/tv-player/tvbox-line/main/tv/fj.json",
            "name": "💎一影视线路"
        },
        {
            "url": "http://maoyingshi.cc/tvbox/云星日记/1.m3u8",
            "name": "🐹云星家庭"
        },
        {
            "url": "http://maoyingshi.cc/tvbox/云星日记/bili.json",
            "name": "🐹云星哔哩"
        },
        {
            "url": "http://maoyingshi.cc/tvbox/云星日记/ali.m3u8",
            "name": "🐹云星阿里"
        },
        {
            "url": "http://111.67.196.181/mtv/meow.txt",
            "name": "🐹太阳线路"
        },
        {
            "url": "https://agit.ai/guot54/ygbh/raw/branch/master/PRO.json",
            "name": "🐹月光宝盒X"
        },
        {
            "url": "http://byyds.top/w.txt",
            "name": "🐹BYYDS线路"
        },
        {
            "url": "http://饭太硬.ga/x/o.json",
            "name": "🐹饭太硬线路"
        },
        {
            "url": "https://download.kstore.space/download/2883/m3u8/dsj/guochan/mp1/1.m3u8",
            "name": "🐹蚂蚁论坛线路"
        }
    ]
}